…
## cities in nice districts 
nice_cities <- us_cities3 %>% filter(congress_district %in% nice_districts$congress_district) %>%
    st_drop_geometry() 

nice_cities %>%
    arrange(ranking) %>%
    head(25)

## # A tibble: 25 x 4
##    city           state_name   ranking congress_district
##    <chr>          <chr>          <dbl> <chr>            
##  1 New Orleans    Louisiana          1 LA 2             
##  2 Queens         New York           1 NY 6             
##  3 Bronx          New York           1 NY 14            
##  4 Manhattan      New York           1 NY 10            
##  5 Brooklyn       New York           1 NY 9             
##  6 New York       New York           1 NY 7             
##  7 Philadelphia   Pennsylvania       1 PA 2             
##  8 Providence     Rhode Island       1 RI 2             
##  9 Las Vegas      Nevada             1 NV 4             
## 10 Virginia Beach Virginia           1 VA 2             
## # ... with 15 more rows
…
